[{
  "id": 1,
  "fecha": "10/6/2019",
  "importe": 83,
  "latitud": -34.4867748,
  "longitud": -55.6287206,
  "ciudad": "Migues"
}, {
  "id": 2,
  "fecha": "12/3/2018",
  "importe": 99,
  "latitud": -7.5590563,
  "longitud": 112.7509656,
  "ciudad": "Jabon"
}, {
  "id": 3,
  "fecha": "7/16/2019",
  "importe": 65,
  "latitud": 35.563507,
  "longitud": 102.199029,
  "ciudad": "Shuangpengxi"
}, {
  "id": 4,
  "fecha": "3/1/2019",
  "importe": 63,
  "latitud": -11.730898,
  "longitud": -75.5464873,
  "ciudad": "Acolla"
}, {
  "id": 5,
  "fecha": "1/20/2019",
  "importe": 42,
  "latitud": 38.0780931,
  "longitud": 139.9986263,
  "ciudad": "Naka"
}, {
  "id": 6,
  "fecha": "11/29/2018",
  "importe": 60,
  "latitud": 49.895309,
  "longitud": 6.0925959,
  "ciudad": "Erpeldange"
}, {
  "id": 7,
  "fecha": "6/21/2019",
  "importe": 33,
  "latitud": 59.924735,
  "longitud": 30.3209555,
  "ciudad": "Amga"
}, {
  "id": 8,
  "fecha": "3/28/2019",
  "importe": 35,
  "latitud": -47.2535728,
  "longitud": -72.5729823,
  "ciudad": "Cochrane"
}, {
  "id": 9,
  "fecha": "3/30/2019",
  "importe": 78,
  "latitud": 21.941555,
  "longitud": 111.426122,
  "ciudad": "Bajia"
}, {
  "id": 10,
  "fecha": "10/24/2018",
  "importe": 59,
  "latitud": "-9.6936",
  "longitud": "119.4562",
  "ciudad": "Barabedang"
}, {
  "id": 11,
  "fecha": "12/13/2018",
  "importe": 59,
  "latitud": 51.1730117,
  "longitud": 7.2822788,
  "ciudad": "Remscheid"
}, {
  "id": 12,
  "fecha": "11/4/2018",
  "importe": 23,
  "latitud": 30.964593,
  "longitud": 120.780294,
  "ciudad": "Taozhuang"
}, {
  "id": 13,
  "fecha": "12/1/2018",
  "importe": 64,
  "latitud": -7.2209016,
  "longitud": 106.962467,
  "ciudad": "Pasirbitung"
}, {
  "id": 14,
  "fecha": "10/18/2018",
  "importe": 38,
  "latitud": 17.1566617,
  "longitud": 104.1331684,
  "ciudad": "Sakon Nakhon"
}, {
  "id": 15,
  "fecha": "10/7/2018",
  "importe": 48,
  "latitud": 0.7193581,
  "longitud": 32.531617,
  "ciudad": "Wobulenzi"
}, {
  "id": 16,
  "fecha": "5/20/2019",
  "importe": 1,
  "latitud": 36.5995041,
  "longitud": 117.0361834,
  "ciudad": "Jiuchi"
}, {
  "id": 17,
  "fecha": "4/2/2019",
  "importe": 61,
  "latitud": -22.8109177,
  "longitud": 47.3302847,
  "ciudad": "Vondrozo"
}, {
  "id": 18,
  "fecha": "11/24/2018",
  "importe": 7,
  "latitud": 23.365556,
  "longitud": 116.70345,
  "ciudad": "Jinping"
}, {
  "id": 19,
  "fecha": "7/19/2019",
  "importe": 64,
  "latitud": 45.4585439,
  "longitud": -74.1406654,
  "ciudad": "Hudson"
}, {
  "id": 20,
  "fecha": "5/24/2019",
  "importe": 18,
  "latitud": -2.9760007,
  "longitud": 118.9295737,
  "ciudad": "Malunda"
}]
